{
    "image": {
      "src": "./pages/4.jpg",
      "width": 5695,
      "height": 8262
    },
    "hotSpots": [
      {
        "audioSrc": "./pages/audio/audio_1_1.mp3",
        "startPoint": {
          "x": 615,
          "y": 785
        },
        "width": 4497,
        "height": 1307
      },
      {
        "audioSrc": "",
        "startPoint": {
          "x": 641,
          "y": 2092
        },
        "width": 4445,
        "height": 1321
      },
      {
        "audioSrc": "",
        "startPoint": {
          "x": 641,
          "y": 3426
        },
        "width": 4458,
        "height": 653
      },
      {
        "audioSrc": "",
        "startPoint": {
          "x": 654,
          "y": 4093
        },
        "width": 4445,
        "height": 980
      }
    ]
  }
  